<?xml version="1.0" encoding="utf-8"?>
<!-- Generator: Adobe Illustrator 21.0.0, SVG Export Plug-In . SVG Version: 6.00 Build 0)  -->
<svg version="1.1" id="Calque_1" xmlns="http://www.w3.org/2000/svg" xmlns:xlink="http://www.w3.org/1999/xlink" x="0px" y="0px"
	 viewBox="0 0 47.8 37.4" style="enable-background:new 0 0 47.8 37.4;" xml:space="preserve">
<style type="text/css">
	.st0{fill:url(#Orange-Circle_1_);}
	.st1{filter:url(#Adobe_OpacityMaskFilter);}
	.st2{fill:#FFFFFF;}
	.st3{mask:url(#mask-3_1_);}
	.st4{fill:#A22B30;}
	.st5{fill:#8E3127;}
	.st6{fill:#AB462C;}
	.st7{fill:#B76141;}
</style>
<g id="Logo-Appaloosa-Circle-out" transform="translate(0.150442, 0.796460)">
	
		<linearGradient id="Orange-Circle_1_" gradientUnits="userSpaceOnUse" x1="-621.6676" y1="397.4463" x2="-622.3107" y2="396.6704" gradientTransform="matrix(25.0551 27.8122 27.8122 -25.0551 4569.9927 27265.1406)">
		<stop  offset="0" style="stop-color:#F08D4A"/>
		<stop  offset="1" style="stop-color:#E75E31"/>
	</linearGradient>
	<circle id="Orange-Circle" class="st0" cx="28.9" cy="17.9" r="18.7"/>
	<g id="Mask">
	</g>
	<defs>
		<filter id="Adobe_OpacityMaskFilter" filterUnits="userSpaceOnUse" x="-0.2" y="8.4" width="36.7" height="20.9">
			<feColorMatrix  type="matrix" values="1 0 0 0 0  0 1 0 0 0  0 0 1 0 0  0 0 0 1 0"/>
		</filter>
	</defs>
	<mask maskUnits="userSpaceOnUse" x="-0.2" y="8.4" width="36.7" height="20.9" id="mask-3_1_">
		<g class="st1">
			<path id="path-2_1_" class="st2" d="M33.1-0.3l10.2-9.2l26.7,29.6L42.1,45.1L33.9,36c-6.6,1.8-14-0.1-18.9-5.5
				C8.1,22.8,8.7,10.9,16.4,4C21.1-0.2,27.3-1.6,33.1-0.3z"/>
		</g>
	</mask>
	<g id="Quiver" class="st3">
		<g transform="translate(-12.349774, -1.958073)">
			
				<g transform="translate(30.775639, 30.239476) rotate(-315.000000) translate(-30.775639, -30.239476) translate(18.275639, 0.239476)">
				<path id="Fill-12" class="st4" d="M26,18c-0.1-0.1-10.9,3-22-7.6C4,10.4,16.7,6.6,26,18"/>
				<path id="Fill-13" class="st5" d="M26,17.9c-0.1-0.1-10.9,3-22-7.5C4,10.4,16.5,10.1,26,17.9"/>
				<g id="Group-36" transform="translate(7.211894, 4.894839)">
					<polyline id="Fill-30" class="st6" points="-17.5,22.8 -20,25.1 -18.8,26.4 -16.2,24.1 					"/>
					<polyline id="Fill-31" class="st6" points="-15.8,24.7 -18.3,26.9 -17.1,28.3 -14.5,25.9 					"/>
					<polyline id="Fill-32" class="st6" points="-14.2,26.5 -16.6,28.8 -15.4,30.1 -12.9,27.8 					"/>
					<polyline id="Fill-33" class="st6" points="-12.5,28.4 -15,30.6 -13.8,32 -11.2,29.6 					"/>
					<polyline id="Fill-34" class="st6" points="-10.8,30.2 -13.3,32.5 -12.1,33.8 -9.5,31.5 					"/>
					<polyline id="Fill-35" class="st6" points="-9.2,32.1 -11.7,34.3 -10.4,35.7 -7.9,33.3 					"/>
				</g>
				<path id="Fill-37" class="st7" d="M4.2,10.2l-14.5,17.4l9.7,10.4L26,17.9C26,17.9,14.9,20.1,4.2,10.2"/>
				<polyline id="Fill-38" class="st6" points="25.7,18.2 -3.1,19.2 -10.6,28 -0.9,38.4 25.7,18.2 				"/>
				<path id="Fill-39" class="st5" d="M-6.2,21.9C-5.8,22,4.8,26.1,22,21L14,27.2c0,0-8.7,4.2-23.1-1.9L-6.2,21.9"/>
				<path id="Fill-40" class="st6" d="M14.7,26.4c-0.6,0.5-1.5,0.5-2.1-0.1c-0.6-0.6-0.5-1.6,0.1-2.1c0.6-0.5,1.5-0.5,2.1,0.1
					C15.3,24.9,15.3,25.8,14.7,26.4"/>
				<path id="Fill-41" class="st6" d="M-4.9,25.9c-0.6,0.5-1.5,0.5-2.1-0.1c-0.6-0.6-0.5-1.6,0.1-2.1c0.6-0.5,1.5-0.5,2.1,0.1
					C-4.2,24.4-4.2,25.4-4.9,25.9"/>
			</g>
		</g>
	</g>
</g>
</svg>
